# NAME     : zjets
# DATA     : 0
# AF2      : 0
# PRIORITY : 0

# Sherpa_2211_Z
mc20_13TeV.700320.Sh_2211_Zee_maxHTpTV2_BFilter.deriv.DAOD_PHYS.e8351_s3681_r13167_p6490
mc20_13TeV.700321.Sh_2211_Zee_maxHTpTV2_CFilterBVeto.deriv.DAOD_PHYS.e8351_s3681_r13167_p6490
mc20_13TeV.700322.Sh_2211_Zee_maxHTpTV2_CVetoBVeto.deriv.DAOD_PHYS.e8351_s3681_r13167_p6490
mc20_13TeV.700323.Sh_2211_Zmumu_maxHTpTV2_BFilter.deriv.DAOD_PHYS.e8351_s3681_r13167_p6490
mc20_13TeV.700324.Sh_2211_Zmumu_maxHTpTV2_CFilterBVeto.deriv.DAOD_PHYS.e8351_s3681_r13167_p6490
mc20_13TeV.700325.Sh_2211_Zmumu_maxHTpTV2_CVetoBVeto.deriv.DAOD_PHYS.e8351_s3681_r13167_p6490
mc20_13TeV.700335.Sh_2211_Znunu_pTV2_BFilter.deriv.DAOD_PHYS.e8351_s3681_r13167_p6490
mc20_13TeV.700336.Sh_2211_Znunu_pTV2_CFilterBVeto.deriv.DAOD_PHYS.e8351_s3681_r13167_p6490
mc20_13TeV.700337.Sh_2211_Znunu_pTV2_CVetoBVeto.deriv.DAOD_PHYS.e8351_s3681_r13167_p6490

# Sherpa_2211_Z_EWK
mc20_13TeV.700358.Sh_2211_Zee2jets_Min_N_TChannel.deriv.DAOD_PHYS.e8357_s3681_r13167_p6490
mc20_13TeV.700359.Sh_2211_Zmm2jets_Min_N_TChannel.deriv.DAOD_PHYS.e8357_s3681_r13167_p6490
mc20_13TeV.700360.Sh_2211_Ztt2jets_Min_N_TChannel.deriv.DAOD_PHYS.e8357_s3681_r13167_p6490
mc20_13TeV.700361.Sh_2211_Znunu2jets_Min_N_TChannel.deriv.DAOD_PHYS.e8357_s3681_r13167_p6490

# Z+jets hadronic
mc20_13TeV.700849.Sh_2214_Zqq_ptZ_200_ECMS.deriv.DAOD_PHYS.e8536_s3681_r13167_p6490
mc20_13TeV.700855.Sh_2214_Zbb_ptZ_200_ECMS.deriv.DAOD_PHYS.e8536_s3681_r13167_p6490