# NAME     : ttbar
# DATA     : 0
# AF2      : 0
# PRIORITY : 0


mc23_13p6TeV.601229.PhPy8EG_A14_ttbar_hdamp258p75_SingleLep.deriv.DAOD_PHYS.e8514_s4159_r15530_p6491
mc23_13p6TeV.601230.PhPy8EG_A14_ttbar_hdamp258p75_dil.deriv.DAOD_PHYS.e8514_s4159_r15530_p6491
mc23_13p6TeV.601237.PhPy8EG_A14_ttbar_hdamp258p75_allhad.deriv.DAOD_PHYS.e8514_s4159_r15530_p6491