# NAME     : gammajet
# DATA     : 0
# AF2      : 0
# PRIORITY : 0


# prompt (fragmentation) photons
mc23_13p6TeV.801649.Py8_gammajet_frag_DP8_17_FullSW.deriv.DAOD_PHYS.e8514_s4162_r14622_p6491
mc23_13p6TeV.801650.Py8_gammajet_frag_DP17_35_FullSW.deriv.DAOD_PHYS.e8514_s4162_r14622_p6491
mc23_13p6TeV.801651.Py8_gammajet_frag_DP35_50_FullSW.deriv.DAOD_PHYS.e8514_s4162_r14622_p6491
mc23_13p6TeV.801652.Py8_gammajet_frag_DP50_70_FullSW.deriv.DAOD_PHYS.e8514_s4162_r14622_p6491
mc23_13p6TeV.801653.Py8_gammajet_frag_DP70_140_FullSW.deriv.DAOD_PHYS.e8514_s4162_r14622_p6491
mc23_13p6TeV.801654.Py8_gammajet_frag_DP140_280_FullSW.deriv.DAOD_PHYS.e8514_s4162_r14622_p6491
mc23_13p6TeV.801655.Py8_gammajet_frag_DP280_500_FullSW.deriv.DAOD_PHYS.e8514_s4162_r14622_p6491
mc23_13p6TeV.801656.Py8_gammajet_frag_DP500_800_FullSW.deriv.DAOD_PHYS.e8514_s4162_r14622_p6491
mc23_13p6TeV.801657.Py8_gammajet_frag_DP800_1000_FullSW.deriv.DAOD_PHYS.e8514_s4162_r14622_p6491
mc23_13p6TeV.801658.Py8_gammajet_frag_DP1000_1500_FullSW.deriv.DAOD_PHYS.e8514_s4162_r14622_p6491
mc23_13p6TeV.801659.Py8_gammajet_frag_DP1500_2000_FullSW.deriv.DAOD_PHYS.e8514_s4162_r14622_p6491
mc23_13p6TeV.801660.Py8_gammajet_frag_DP2000_inf_FullSW.deriv.DAOD_PHYS.e8514_s4162_r14622_p6491

# prompt (fragmentation) photons
mc23_13p6TeV.801663.Py8_gammajet_direct_DP8_17_FullSW.deriv.DAOD_PHYS.e8514_s4162_r14622_p6491
mc23_13p6TeV.801664.Py8_gammajet_direct_DP17_35_FullSW.deriv.DAOD_PHYS.e8514_s4162_r14622_p6491
mc23_13p6TeV.801665.Py8_gammajet_direct_DP35_50_FullSW.deriv.DAOD_PHYS.e8514_s4162_r14622_p6491
mc23_13p6TeV.801666.Py8_gammajet_direct_DP50_70_FullSW.deriv.DAOD_PHYS.e8514_s4162_r14622_p6491
mc23_13p6TeV.801667.Py8_gammajet_direct_DP70_140_FullSW.deriv.DAOD_PHYS.e8514_s4162_r14622_p6491
mc23_13p6TeV.801668.Py8_gammajet_direct_DP140_280_FullSW.deriv.DAOD_PHYS.e8514_s4162_r14622_p6491
mc23_13p6TeV.801669.Py8_gammajet_direct_DP280_500_FullSW.deriv.DAOD_PHYS.e8514_s4162_r14622_p6491
mc23_13p6TeV.801670.Py8_gammajet_direct_DP500_800_FullSW.deriv.DAOD_PHYS.e8514_s4162_r14622_p6491
mc23_13p6TeV.801671.Py8_gammajet_direct_DP800_1000_FullSW.deriv.DAOD_PHYS.e8514_s4162_r14622_p6491
mc23_13p6TeV.801672.Py8_gammajet_direct_DP1000_1500_FullSW.deriv.DAOD_PHYS.e8514_s4162_r14622_p6491
mc23_13p6TeV.801673.Py8_gammajet_direct_DP1500_2000_FullSW.deriv.DAOD_PHYS.e8514_s4162_r14622_p6491
mc23_13p6TeV.801674.Py8_gammajet_direct_DP2000_2500_FullSW.deriv.DAOD_PHYS.e8514_s4162_r14622_p6491
mc23_13p6TeV.801675.Py8_gammajet_direct_DP2500_3000_FullSW.deriv.DAOD_PHYS.e8514_s4162_r14622_p6491
mc23_13p6TeV.801676.Py8_gammajet_direct_DP3000_inf_FullSW.deriv.DAOD_PHYS.e8514_s4162_r14622_p6491