# NAME     : zjets
# DATA     : 0
# AF2      : 0
# PRIORITY : 0

#Z+jets on-shell
mc23_13p6TeV.700786.Sh_2214_Zee_maxHTpTV2_BFilter.deriv.DAOD_PHYS.e8514_s4162_r14622_p6491
mc23_13p6TeV.700787.Sh_2214_Zee_maxHTpTV2_CFilterBVeto.deriv.DAOD_PHYS.e8514_s4162_r14622_p6491
mc23_13p6TeV.700788.Sh_2214_Zee_maxHTpTV2_CVetoBVeto.deriv.DAOD_PHYS.e8514_s4162_r15540_p6491
mc23_13p6TeV.700789.Sh_2214_Zmumu_maxHTpTV2_BFilter.deriv.DAOD_PHYS.e8514_s4162_r14622_p6491
mc23_13p6TeV.700790.Sh_2214_Zmumu_maxHTpTV2_CFilterBVeto.deriv.DAOD_PHYS.e8514_s4162_r14622_p6491
mc23_13p6TeV.700791.Sh_2214_Zmumu_maxHTpTV2_CVetoBVeto.deriv.DAOD_PHYS.e8514_s4162_r15540_p6491
mc23_13p6TeV.700792.Sh_2214_Ztautau_maxHTpTV2_BFilter.deriv.DAOD_PHYS.e8514_s4162_r14622_p6491
mc23_13p6TeV.700793.Sh_2214_Ztautau_maxHTpTV2_CFilterBVeto.deriv.DAOD_PHYS.e8514_s4162_r14622_p6491
mc23_13p6TeV.700794.Sh_2214_Ztautau_maxHTpTV2_CVetoBVeto.deriv.DAOD_PHYS.e8514_s4162_r15540_p6491
mc23_13p6TeV.700795.Sh_2214_Znunu_pTV2_BFilter.deriv.DAOD_PHYS.e8514_s4162_r14622_p6491
mc23_13p6TeV.700796.Sh_2214_Znunu_pTV2_CFilterBVeto.deriv.DAOD_PHYS.e8514_s4162_r14622_p6491
mc23_13p6TeV.700797.Sh_2214_Znunu_pTV2_CVetoBVeto.deriv.DAOD_PHYS.e8514_s4162_r15540_p6491

# Z+jets hadronic
mc23_13p6TeV.700849.Sh_2214_Zqq_ptZ_200_ECMS.deriv.DAOD_PHYS.e8514_s4162_r14622_p6491
mc23_13p6TeV.700855.Sh_2214_Zbb_ptZ_200_ECMS.deriv.DAOD_PHYS.e8514_s4162_r14622_p6491

#Z+jets off-shell
mc23_13p6TeV.700895.Sh_2214_Zee_maxHTpTV2_Mll10_40_BFilter.deriv.DAOD_PHYS.e8514_s4162_r14622_p6491
mc23_13p6TeV.700896.Sh_2214_Zee_maxHTpTV2_Mll10_40_CFilterBVeto.deriv.DAOD_PHYS.e8514_s4162_r14622_p6491
mc23_13p6TeV.700897.Sh_2214_Zee_maxHTpTV2_Mll10_40_CVetoBVeto.deriv.DAOD_PHYS.e8514_s4162_r14622_p6491
mc23_13p6TeV.700898.Sh_2214_Zmumu_maxHTpTV2_Mll10_40_BFilter.deriv.DAOD_PHYS.e8514_s4162_r14622_p6491
mc23_13p6TeV.700899.Sh_2214_Zmumu_maxHTpTV2_Mll10_40_CFilterBVeto.deriv.DAOD_PHYS.e8514_s4162_r14622_p6491
mc23_13p6TeV.700900.Sh_2214_Zmumu_maxHTpTV2_Mll10_40_CVetoBVeto.deriv.DAOD_PHYS.e8514_s4162_r14622_p6491
mc23_13p6TeV.700901.Sh_2214_Ztt_maxHTpTV2_Mll10_40_BFilter.deriv.DAOD_PHYS.e8514_s4162_r14622_p6491
mc23_13p6TeV.700902.Sh_2214_Ztt_maxHTpTV2_Mll10_40_CFilterBVeto.deriv.DAOD_PHYS.e8514_s4162_r14622_p6491
mc23_13p6TeV.700903.Sh_2214_Ztt_maxHTpTV2_Mll10_40_CVetoBVeto.deriv.DAOD_PHYS.e8514_s4162_r14622_p6491