# NAME     : ttbar
# DATA     : 0
# AF2      : 0
# PRIORITY : 0

mc20_13TeV.410470.PhPy8EG_A14_ttbar_hdamp258p75_nonallhad.deriv.DAOD_PHYS.e6337_s3681_r13144_p6490
mc20_13TeV.410471.PhPy8EG_A14_ttbar_hdamp258p75_allhad.deriv.DAOD_PHYS.e6337_s3681_r13144_p6490
#mc20_13TeV.410472.PhPy8EG_A14_ttbar_hdamp258p75_dil.deriv.DAOD_PHYS.e6348_s3681_r13144_p6490